<?xml version="1.0" encoding="iso-8859-1"?>
<!-- Generator: Adobe Illustrator 16.0.0, SVG Export Plug-In . SVG Version: 6.00 Build 0)  -->
<!DOCTYPE svg PUBLIC "-//W3C//DTD SVG 1.1//EN" "http://www.w3.org/Graphics/SVG/1.1/DTD/svg11.dtd">
<svg xmlns="http://www.w3.org/2000/svg" xmlns:xlink="http://www.w3.org/1999/xlink" version="1.1" id="Capa_1" x="0px" y="0px" width="512px" height="512px" viewBox="0 0 612 612" style="enable-background:new 0 0 612 612;" xml:space="preserve">
<g>
	<g id="backspace">
		<path d="M561,76.5H178.5c-17.85,0-30.6,7.65-40.8,22.95L0,306l137.7,206.55c10.2,12.75,22.95,22.95,40.8,22.95H561    c28.05,0,51-22.95,51-51v-357C612,99.45,589.05,76.5,561,76.5z M484.5,397.8l-35.7,35.7L357,341.7l-91.8,91.8l-35.7-35.7    l91.8-91.8l-91.8-91.8l35.7-35.7l91.8,91.8l91.8-91.8l35.7,35.7L392.7,306L484.5,397.8z" fill="#FFFFFF"/>
	</g>
</g>
<g>
</g>
<g>
</g>
<g>
</g>
<g>
</g>
<g>
</g>
<g>
</g>
<g>
</g>
<g>
</g>
<g>
</g>
<g>
</g>
<g>
</g>
<g>
</g>
<g>
</g>
<g>
</g>
<g>
</g>
</svg>
